%YAML 1.1
%TAG !u! tag:unity3d.com,2011:
--- !u!1 &5637360103915244679
GameObject:
  m_ObjectHideFlags: 0
  m_CorrespondingSourceObject: {fileID: 0}
  m_PrefabInstance: {fileID: 0}
  m_PrefabAsset: {fileID: 0}
  serializedVersion: 6
  m_Component:
  - component: {fileID: 5637360103915244678}
  m_Layer: 8
  m_Name: Lives
  m_TagString: Untagged
  m_Icon: {fileID: 0}
  m_NavMeshLayer: 0
  m_StaticEditorFlags: 0
  m_IsActive: 1
--- !u!4 &5637360103915244678
Transform:
  m_ObjectHideFlags: 0
  m_CorrespondingSourceObject: {fileID: 0}
  m_PrefabInstance: {fileID: 0}
  m_PrefabAsset: {fileID: 0}
  m_GameObject: {fileID: 5637360103915244679}
  m_LocalRotation: {x: 0, y: 0, z: 0, w: 1}
  m_LocalPosition: {x: 0, y: 3, z: 0}
  m_LocalScale: {x: 1, y: 1, z: 1}
  m_ConstrainProportionsScale: 0
  m_Children:
  - {fileID: 3653902416460725255}
  - {fileID: 6382836924451803868}
  m_Father: {fileID: 0}
  m_RootOrder: 0
  m_LocalEulerAnglesHint: {x: 0, y: 0, z: 0}
--- !u!1001 &3936172865380893006
PrefabInstance:
  m_ObjectHideFlags: 0
  serializedVersion: 2
  m_Modification:
    m_TransformParent: {fileID: 5637360103915244678}
    m_Modifications:
    - target: {fileID: 294243324973972809, guid: 630db28b4d74a4d18a4870a99a7a1e85, type: 3}
      propertyPath: m_RootOrder
      value: 0
      objectReference: {fileID: 0}
    - target: {fileID: 294243324973972809, guid: 630db28b4d74a4d18a4870a99a7a1e85, type: 3}
      propertyPath: m_LocalPosition.x
      value: 0
      objectReference: {fileID: 0}
    - target: {fileID: 294243324973972809, guid: 630db28b4d74a4d18a4870a99a7a1e85, type: 3}
      propertyPath: m_LocalPosition.y
      value: 0
      objectReference: {fileID: 0}
    - target: {fileID: 294243324973972809, guid: 630db28b4d74a4d18a4870a99a7a1e85, type: 3}
      propertyPath: m_LocalPosition.z
      value: 0
      objectReference: {fileID: 0}
    - target: {fileID: 294243324973972809, guid: 630db28b4d74a4d18a4870a99a7a1e85, type: 3}
      propertyPath: m_LocalRotation.w
      value: 0.7071068
      objectReference: {fileID: 0}
    - target: {fileID: 294243324973972809, guid: 630db28b4d74a4d18a4870a99a7a1e85, type: 3}
      propertyPath: m_LocalRotation.x
      value: 0
      objectReference: {fileID: 0}
    - target: {fileID: 294243324973972809, guid: 630db28b4d74a4d18a4870a99a7a1e85, type: 3}
      propertyPath: m_LocalRotation.y
      value: 0.7071068
      objectReference: {fileID: 0}
    - target: {fileID: 294243324973972809, guid: 630db28b4d74a4d18a4870a99a7a1e85, type: 3}
      propertyPath: m_LocalRotation.z
      value: 0
      objectReference: {fileID: 0}
    - target: {fileID: 294243324973972809, guid: 630db28b4d74a4d18a4870a99a7a1e85, type: 3}
      propertyPath: m_LocalEulerAnglesHint.x
      value: 0
      objectReference: {fileID: 0}
    - target: {fileID: 294243324973972809, guid: 630db28b4d74a4d18a4870a99a7a1e85, type: 3}
      propertyPath: m_LocalEulerAnglesHint.y
      value: 90
      objectReference: {fileID: 0}
    - target: {fileID: 294243324973972809, guid: 630db28b4d74a4d18a4870a99a7a1e85, type: 3}
      propertyPath: m_LocalEulerAnglesHint.z
      value: 0
      objectReference: {fileID: 0}
    - target: {fileID: 7783866403976162249, guid: 630db28b4d74a4d18a4870a99a7a1e85, type: 3}
      propertyPath: m_Name
      value: Life
      objectReference: {fileID: 0}
    m_RemovedComponents: []
  m_SourcePrefab: {fileID: 100100000, guid: 630db28b4d74a4d18a4870a99a7a1e85, type: 3}
--- !u!4 &3653902416460725255 stripped
Transform:
  m_CorrespondingSourceObject: {fileID: 294243324973972809, guid: 630db28b4d74a4d18a4870a99a7a1e85, type: 3}
  m_PrefabInstance: {fileID: 3936172865380893006}
  m_PrefabAsset: {fileID: 0}
--- !u!1001 &6665671474510573461
PrefabInstance:
  m_ObjectHideFlags: 0
  serializedVersion: 2
  m_Modification:
    m_TransformParent: {fileID: 5637360103915244678}
    m_Modifications:
    - target: {fileID: 294243324973972809, guid: 630db28b4d74a4d18a4870a99a7a1e85, type: 3}
      propertyPath: m_RootOrder
      value: 1
      objectReference: {fileID: 0}
    - target: {fileID: 294243324973972809, guid: 630db28b4d74a4d18a4870a99a7a1e85, type: 3}
      propertyPath: m_LocalPosition.x
      value: 0
      objectReference: {fileID: 0}
    - target: {fileID: 294243324973972809, guid: 630db28b4d74a4d18a4870a99a7a1e85, type: 3}
      propertyPath: m_LocalPosition.y
      value: 0
      objectReference: {fileID: 0}
    - target: {fileID: 294243324973972809, guid: 630db28b4d74a4d18a4870a99a7a1e85, type: 3}
      propertyPath: m_LocalPosition.z
      value: 248.4
      objectReference: {fileID: 0}
    - target: {fileID: 294243324973972809, guid: 630db28b4d74a4d18a4870a99a7a1e85, type: 3}
      propertyPath: m_LocalRotation.w
      value: 0.7071068
      objectReference: {fileID: 0}
    - target: {fileID: 294243324973972809, guid: 630db28b4d74a4d18a4870a99a7a1e85, type: 3}
      propertyPath: m_LocalRotation.x
      value: 0
      objectReference: {fileID: 0}
    - target: {fileID: 294243324973972809, guid: 630db28b4d74a4d18a4870a99a7a1e85, type: 3}
      propertyPath: m_LocalRotation.y
      value: 0.7071068
      objectReference: {fileID: 0}
    - target: {fileID: 294243324973972809, guid: 630db28b4d74a4d18a4870a99a7a1e85, type: 3}
      propertyPath: m_LocalRotation.z
      value: 0
      objectReference: {fileID: 0}
    - target: {fileID: 294243324973972809, guid: 630db28b4d74a4d18a4870a99a7a1e85, type: 3}
      propertyPath: m_LocalEulerAnglesHint.x
      value: 0
      objectReference: {fileID: 0}
    - target: {fileID: 294243324973972809, guid: 630db28b4d74a4d18a4870a99a7a1e85, type: 3}
      propertyPath: m_LocalEulerAnglesHint.y
      value: 90
      objectReference: {fileID: 0}
    - target: {fileID: 294243324973972809, guid: 630db28b4d74a4d18a4870a99a7a1e85, type: 3}
      propertyPath: m_LocalEulerAnglesHint.z
      value: 0
      objectReference: {fileID: 0}
    - target: {fileID: 7783866403976162249, guid: 630db28b4d74a4d18a4870a99a7a1e85, type: 3}
      propertyPath: m_Name
      value: Life (1)
      objectReference: {fileID: 0}
    m_RemovedComponents: []
  m_SourcePrefab: {fileID: 100100000, guid: 630db28b4d74a4d18a4870a99a7a1e85, type: 3}
--- !u!4 &6382836924451803868 stripped
Transform:
  m_CorrespondingSourceObject: {fileID: 294243324973972809, guid: 630db28b4d74a4d18a4870a99a7a1e85, type: 3}
  m_PrefabInstance: {fileID: 6665671474510573461}
  m_PrefabAsset: {fileID: 0}
